第 3 章 数据导入 | 极客R：数据分析之道
…
z2
#> # A tibble: 320,000 x 11
#>      mpg   cyl  disp    hp  drat    wt  qsec    vs
#>    <dbl> <dbl> <dbl> <dbl> <dbl> <dbl> <dbl> <dbl>
#>  1  21       6  160    110  3.9   2.62  16.5     0
#>  2  21       6  160    110  3.9   2.88  17.0     0
#>  3  22.8     4  108     93  3.85  2.32  18.6     1
#>  4  21.4     6  258    110  3.08  3.22  19.4     1
#>  5  18.7     8  360    175  3.15  3.44  17.0     0
#>  6  18.1     6  225    105  2.76  3.46  20.2     1
#>  7  14.3     8  360    245  3.21  3.57  15.8     0
#>  8  24.4     4  147.    62  3.69  3.19  20       1
#>  9  22.8     4  141.    95  3.92  3.15  22.9     1
#> 10  19.2     6  168.   123  3.92  3.44  18.3     1
#> # … with 319,990 more rows, and 3 more variables:
#> #   am <dbl>, gear <dbl>, carb <dbl>
…
而 readr 包提供了一系列的 read_*() 函数，方便用户将常见数据文件导入为 tibble：

mt2 <- read_tsv("data/data-import/mtcars.tsv")
mt2
#> # A tibble: 32 x 11
#>      mpg   cyl  disp    hp  drat    wt  qsec    vs
#>    <dbl> <dbl> <dbl> <dbl> <dbl> <dbl> <dbl> <dbl>
#>  1  21       6  160    110  3.9   2.62  16.5     0
#>  2  21       6  160    110  3.9   2.88  17.0     0
#>  3  22.8     4  108     93  3.85  2.32  18.6     1
#>  4  21.4     6  258    110  3.08  3.22  19.4     1
#>  5  18.7     8  360    175  3.15  3.44  17.0     0
#>  6  18.1     6  225    105  2.76  3.46  20.2     1
#>  7  14.3     8  360    245  3.21  3.57  15.8     0
#>  8  24.4     4  147.    62  3.69  3.19  20       1
#>  9  22.8     4  141.    95  3.92  3.15  22.9     1
#> 10  19.2     6  168.   123  3.92  3.44  18.3     1
#> # … with 22 more rows, and 3 more variables:
#> #   am <dbl>, gear <dbl>, carb <dbl>
…
